Assignment MVA Multiple Logistic Regression
…
Fitted values

augment(final.m, 
        type.predict = 'response', 
        type.residuals = 'pearson')

# A tibble: 302 × 14
   .rownames output   age sex    cp    trtbps fbs   exng  .fitted .resid    .hat
   <chr>     <fct>  <int> <fct>  <fct>  <int> <fct> <fct>   <dbl>  <dbl>   <dbl>
 1 1         No        63 Male   Type…    145 True  No     0.314  -0.676 0.0835 
 2 2         No        37 Male   Type…    130 False No     0.117  -0.365 0.0214 
 3 3         No        41 Female Type…    130 False No     0.0183 -0.137 0.00716
 4 4         No        56 Male   Type…    120 False No     0.231  -0.548 0.0332 
 5 5         No        57 Female Type…    120 False Yes    0.533  -1.07  0.0406 
 6 6         No        57 Male   Type…    140 False No     0.796  -1.97  0.0175 
 7 7         No        56 Female Type…    140 False No     0.0518 -0.234 0.0138 
 8 8         No        44 Male   Type…    120 False No     0.128  -0.383 0.0232 
 9 9         No        52 Male   Type…    172 True  No     0.292  -0.643 0.0728 
10 10        No        57 Male   Type…    150 False No     0.385  -0.792 0.0334 
# ℹ 292 more rows
# ℹ 3 more variables: .sigma <dbl>, .cooksd <dbl>, .std.resid <dbl>
…
Influential

infl <- influence.measures(final.m)

We use augment() to generate the residuals values

data2.pred.res <- augment(final.m)
data2.pred.res

# A tibble: 302 × 14
   .rownames output   age sex    cp    trtbps fbs   exng  .fitted .resid    .hat
   <chr>     <fct>  <int> <fct>  <fct>  <int> <fct> <fct>   <dbl>  <dbl>   <dbl>
 1 1         No        63 Male   Type…    145 True  No     -0.783 -0.868 0.0835 
 2 2         No        37 Male   Type…    130 False No     -2.02  -0.500 0.0214 
 3 3         No        41 Female Type…    130 False No     -3.98  -0.192 0.00716
 4 4         No        56 Male   Type…    120 False No     -1.20  -0.725 0.0332 
 5 5         No        57 Female Type…    120 False Yes     0.134 -1.23  0.0406 
 6 6         No        57 Male   Type…    140 False No      1.36  -1.78  0.0175 
 7 7         No        56 Female Type…    140 False No     -2.91  -0.326 0.0138 
 8 8         No        44 Male   Type…    120 False No     -1.92  -0.523 0.0232 
 9 9         No        52 Male   Type…    172 True  No     -0.884 -0.831 0.0728 
10 10        No        57 Male   Type…    150 False No     -0.467 -0.986 0.0334 
# ℹ 292 more rows
# ℹ 3 more variables: .sigma <dbl>, .cooksd <dbl>, .std.resid <dbl>
…
